Phase_01/04. Hardware Implementation/cpu_wavedata.vcd
$date
  Thu Jan 02 18:17:54 2025
$end
$version
  GHDL v0
$end
$timescale
  1 fs
$end
$scope module standard $end
$upscope $end
$scope module std_logic_1164 $end
$upscope $end
$scope module numeric_std $end
$upscope $end
$scope module alutb $end
$var reg 32 ! data1[31:0] $end
$var reg 32 " data2[31:0] $end
$var reg 32 # aluresult[31:0] $end
$var reg 4 $ aluop[3:0] $end
$var reg 1 % zero $end
$scope module alu_component $end
$var reg 32 & data1[31:0] $end
$var reg 32 ' data2[31:0] $end
$var reg 4 ( aluop[3:0] $end
$var reg 32 ) aluresult[31:0] $end
$var reg 1 * zero $end
$var reg 32 + andoutput[31:0] $end
$var reg 32 , oroutput[31:0] $end
$var reg 32 - xoroutput[31:0] $end
$var reg 32 . adderoutput[31:0] $end
$var reg 32 / shiftoutput[31:0] $end
$var reg 32 0 sltoutput[31:0] $end
$var reg 32 1 sltuoutput[31:0] $end
$var reg 32 2 compoutput[31:0] $end
$var reg 32 3 muxoutput[31:0] $end
$var reg 2 4 shifttype[1:0] $end
$var reg 1 5 muxselect $end
$scope module and_operator $end
$var reg 32 6 input_1[31:0] $end
$var reg 32 7 input_2[31:0] $end
$var reg 32 8 output_1[31:0] $end
$upscope $end
$scope module or_operator $end
$var reg 32 9 input_1[31:0] $end
$var reg 32 : input_2[31:0] $end
$var reg 32 ; output_1[31:0] $end
$upscope $end
$scope module xor_operator $end
$var reg 32 < input_1[31:0] $end
$var reg 32 = input_2[31:0] $end
$var reg 32 > output_1[31:0] $end
$upscope $end
$scope module complementor $end
$var reg 32 ? input_data[31:0] $end
$var reg 32 @ output_data[31:0] $end
$upscope $end
$scope module mux $end
$var reg 32 A input_1[31:0] $end
$var reg 32 B input_2[31:0] $end
$var reg 1 C selector $end
$var reg 32 D output_1[31:0] $end
$upscope $end
$scope module add_operator $end
$var reg 32 E input_1[31:0] $end
$var reg 32 F input_2[31:0] $end
$var reg 32 G output_1[31:0] $end
$upscope $end
$scope module shift_operator $end
$var reg 32 H input_1[31:0] $end
$var reg 32 I input_2[31:0] $end
$var reg 2 J shifttype[1:0] $end
$var reg 32 K output_1[31:0] $end
$var reg 32 L mux0out[31:0] $end
$var reg 32 M mux1out[31:0] $end
$var reg 32 N mux2out[31:0] $end
$var reg 32 O mux3out[31:0] $end
$var reg 32 P mux4out[31:0] $end
$var reg 32 Q mux5out[31:0] $end
$var reg 2 R mux0sel[1:0] $end
$var reg 2 S mux1sel[1:0] $end
$var reg 2 T mux2sel[1:0] $end
$var reg 2 U mux3sel[1:0] $end
$var reg 2 V mux4sel[1:0] $end
$var reg 2 W mux5sel[1:0] $end
$var reg 32 X shift_l1[31:0] $end
$var reg 32 Y shift_l2[31:0] $end
$var reg 32 Z shift_l4[31:0] $end
$var reg 32 [ shift_l8[31:0] $end
$var reg 32 \ shift_l16[31:0] $end
$var reg 32 ] shift_l32[31:0] $end
$var reg 32 ^ shift_r1[31:0] $end
$var reg 32 _ shift_r2[31:0] $end
$var reg 32 ` shift_r4[31:0] $end
$var reg 32 a shift_r8[31:0] $end
$var reg 32 b shift_r16[31:0] $end
$var reg 32 c shift_r32[31:0] $end
$var reg 32 d extender[31:0] $end
$var reg 32 e fixed[31:0] $end
$var reg 32 f adderout[31:0] $end
$scope module mux0 $end
$var reg 32 g input_1[31:0] $end
$var reg 32 h input_2[31:0] $end
$var reg 32 i input_3[31:0] $end
$var reg 32 j input_4[31:0] $end
$var reg 2 k selector[1:0] $end
$var reg 32 l output_1[31:0] $end
$upscope $end
$scope module mux1 $end
$var reg 32 m input_1[31:0] $end
$var reg 32 n input_2[31:0] $end
$var reg 32 o input_3[31:0] $end
$var reg 32 p input_4[31:0] $end
$var reg 2 q selector[1:0] $end
$var reg 32 r output_1[31:0] $end
$upscope $end
$scope module mux2 $end
$var reg 32 s input_1[31:0] $end
$var reg 32 t input_2[31:0] $end
$var reg 32 u input_3[31:0] $end
$var reg 32 v input_4[31:0] $end
$var reg 2 w selector[1:0] $end
$var reg 32 x output_1[31:0] $end
$upscope $end
$scope module mux3 $end
$var reg 32 y input_1[31:0] $end
$var reg 32 z input_2[31:0] $end
$var reg 32 { input_3[31:0] $end
$var reg 32 | input_4[31:0] $end
$var reg 2 } selector[1:0] $end
$var reg 32 !" output_1[31:0] $end
$upscope $end
$scope module mux4 $end
$var reg 32 "" input_1[31:0] $end
$var reg 32 #" input_2[31:0] $end
$var reg 32 $" input_3[31:0] $end
$var reg 32 %" input_4[31:0] $end
$var reg 2 &" selector[1:0] $end
$var reg 32 '" output_1[31:0] $end
$upscope $end
$scope module mux5 $end
$var reg 32 (" input_1[31:0] $end
$var reg 32 )" input_2[31:0] $end
$var reg 32 *" input_3[31:0] $end
$var reg 32 +" input_4[31:0] $end
$var reg 2 ," selector[1:0] $end
$var reg 32 -" output_1[31:0] $end
$upscope $end
$scope module shiftadder $end
$var reg 32 ." input_1[31:0] $end
$var reg 32 /" input_2[31:0] $end
$var reg 32 0" output_1[31:0] $end
$upscope $end
$upscope $end
$scope module slt_operator $end
$var reg 32 1" input_1[31:0] $end
$var reg 32 2" input_2[31:0] $end
$var reg 32 3" output_1[31:0] $end
$upscope $end
$scope module sltu_operator $end
$var reg 32 4" input_1[31:0] $end
$var reg 32 5" input_2[31:0] $end
$var reg 32 6" output_1[31:0] $end
$upscope $end
$upscope $end
$upscope $end
$enddefinitions $end
#0
b00000000000000000000000000000000 !
b00000000000000000000000000000000 "
bXXXXXXXXXXXXXXXXXXXXXXXXXXXXXXXX #
b1000 $
U%
b00000000000000000000000000000000 &
b00000000000000000000000000000000 '
b1000 (
bXXXXXXXXXXXXXXXXXXXXXXXXXXXXXXXX )
U*
b00000000000000000000000000000000 +
b00000000000000000000000000000000 ,
b00000000000000000000000000000000 -
bXXXXXXXXXXXXXXXXXXXXXXXXXXXXXXXX .
bZZZZZZZZZZZZZZZZZZZZZZZZZZZZZZZZ /
b00000000000000000000000000000000 0
b00000000000000000000000000000000 1
b00000000000000000000000000000000 2
bZZZZZZZZZZZZZZZZZZZZZZZZZZZZZZZZ 3
bUU 4
U5
b00000000000000000000000000000000 6
b00000000000000000000000000000000 7
b00000000000000000000000000000000 8
b00000000000000000000000000000000 9
b00000000000000000000000000000000 :
b00000000000000000000000000000000 ;
b00000000000000000000000000000000 <
b00000000000000000000000000000000 =
b00000000000000000000000000000000 >
b00000000000000000000000000000000 ?
b00000000000000000000000000000000 @
b00000000000000000000000000000000 A
b00000000000000000000000000000000 B
UC
bZZZZZZZZZZZZZZZZZZZZZZZZZZZZZZZZ D
b00000000000000000000000000000000 E
bZZZZZZZZZZZZZZZZZZZZZZZZZZZZZZZZ F
bXXXXXXXXXXXXXXXXXXXXXXXXXXXXXXXX G
b00000000000000000000000000000000 H
b00000000000000000000000000000000 I
bUU J
bZZZZZZZZZZZZZZZZZZZZZZZZZZZZZZZZ K
bZZZZZZZZZZZZZZZZZZZZZZZZZZZZZZZZ L
bZZZZZZZZZZZZZZZZZZZZZZZZZZZZZZZZ M
bZZZZZZZZZZZZZZZZZZZZZZZZZZZZZZZZ N
bZZZZZZZZZZZZZZZZZZZZZZZZZZZZZZZZ O
bZZZZZZZZZZZZZZZZZZZZZZZZZZZZZZZZ P
bUUUUUUUUUUUUUUUUUUUUUUUUUUUUUUUU Q
bU0 R
bU0 S
bU0 T
bU0 U
bU0 V
bU1 W
b0000000000000000000000000000000U X
bZZZZZZZZZZZZZZZZZZZZZZZZZZZZZZUU Y
bZZZZZZZZZZZZZZZZZZZZZZZZZZZZUUUU Z
bZZZZZZZZZZZZZZZZZZZZZZZZUUUUUUUU [
bZZZZZZZZZZZZZZZZUUUUUUUUUUUUUUUU \
bUUUUUUUUUUUUUUUUUUUUUUUUUUUUUUUU ]
bU0000000000000000000000000000000 ^
bUUZZZZZZZZZZZZZZZZZZZZZZZZZZZZZZ _
bUUUUZZZZZZZZZZZZZZZZZZZZZZZZZZZZ `
bUUUUUUUUZZZZZZZZZZZZZZZZZZZZZZZZ a
bUUUUUUUUUUUUUUUUZZZZZZZZZZZZZZZZ b
bUUUUUUUUUUUUUUUUUUUUUUUUUUUUUUUU c
bUUUUUUUUUUUUUUUUUUUUUUUUUUUUUUUU d
b11111111111111111111111111100000 e
b11111111111111111111111111100000 f
b00000000000000000000000000000000 g
b0000000000000000000000000000000U h
b00000000000000000000000000000000 i
bU0000000000000000000000000000000 j
bU0 k
bZZZZZZZZZZZZZZZZZZZZZZZZZZZZZZZZ l
bZZZZZZZZZZZZZZZZZZZZZZZZZZZZZZZZ m
bZZZZZZZZZZZZZZZZZZZZZZZZZZZZZZUU n
bZZZZZZZZZZZZZZZZZZZZZZZZZZZZZZZZ o
bUUZZZZZZZZZZZZZZZZZZZZZZZZZZZZZZ p
bU0 q
bZZZZZZZZZZZZZZZZZZZZZZZZZZZZZZZZ r
bZZZZZZZZZZZZZZZZZZZZZZZZZZZZZZZZ s
bZZZZZZZZZZZZZZZZZZZZZZZZZZZZUUUU t
bZZZZZZZZZZZZZZZZZZZZZZZZZZZZZZZZ u
bUUUUZZZZZZZZZZZZZZZZZZZZZZZZZZZZ v
bU0 w
bZZZZZZZZZZZZZZZZZZZZZZZZZZZZZZZZ x
bZZZZZZZZZZZZZZZZZZZZZZZZZZZZZZZZ y
bZZZZZZZZZZZZZZZZZZZZZZZZUUUUUUUU z
bZZZZZZZZZZZZZZZZZZZZZZZZZZZZZZZZ {
bUUUUUUUUZZZZZZZZZZZZZZZZZZZZZZZZ |
bU0 }
bZZZZZZZZZZZZZZZZZZZZZZZZZZZZZZZZ !"
bZZZZZZZZZZZZZZZZZZZZZZZZZZZZZZZZ ""
bZZZZZZZZZZZZZZZZUUUUUUUUUUUUUUUU #"
bZZZZZZZZZZZZZZZZZZZZZZZZZZZZZZZZ $"
bUUUUUUUUUUUUUUUUZZZZZZZZZZZZZZZZ %"
bU0 &"
bZZZZZZZZZZZZZZZZZZZZZZZZZZZZZZZZ '"
bUUUUUUUUUUUUUUUUUUUUUUUUUUUUUUUU ("
bZZZZZZZZZZZZZZZZZZZZZZZZZZZZZZZZ )"
bUUUUUUUUUUUUUUUUUUUUUUUUUUUUUUUU *"
bZZZZZZZZZZZZZZZZZZZZZZZZZZZZZZZZ +"
bU1 ,"
bZZZZZZZZZZZZZZZZZZZZZZZZZZZZZZZZ -"
b00000000000000000000000000000000 ."
b11111111111111111111111111100000 /"
b11111111111111111111111111100000 0"
b00000000000000000000000000000000 1"
b00000000000000000000000000000000 2"
b00000000000000000000000000000000 3"
b00000000000000000000000000000000 4"
b00000000000000000000000000000000 5"
b00000000000000000000000000000000 6"
#10000000
b00000000000000000000000000000000 #
b00000000000000000000000000000000 )
#40000000
b11111111111111111111111111111111 !
b11111111111111111111111111111111 &
b11111111111111111111111111111111 ,
b11111111111111111111111111111111 -
b00000000000000000000000000000001 0
b11111111111111111111111111111111 6
b11111111111111111111111111111111 9
b11111111111111111111111111111111 ;
b11111111111111111111111111111111 <
b11111111111111111111111111111111 >
b11111111111111111111111111111111 E
b11111111111111111111111111111111 H
b1111111111111111111111111111111U X
bU1111111111111111111111111111111 ^
b11111111111111111111111111111111 g
b1111111111111111111111111111111U h
b11111111111111111111111111111111 i
bU1111111111111111111111111111111 j
b11111111111111111111111111111111 1"
b00000000000000000000000000000001 3"
b11111111111111111111111111111111 4"
#50000000
b11111111111111111111111111111111 #
b11111111111111111111111111111111 )
#80000000
b10101010101010101010101010101010 !
b01010101010101010101010101010101 "
b10101010101010101010101010101010 &
b01010101010101010101010101010101 '
b10101010101010101010101010101011 2
b10101010101010101010101010101010 6
b01010101010101010101010101010101 7
b10101010101010101010101010101010 9
b01010101010101010101010101010101 :
b10101010101010101010101010101010 <
b01010101010101010101010101010101 =
b01010101010101010101010101010101 ?
b10101010101010101010101010101011 @
b01010101010101010101010101010101 A
b10101010101010101010101010101011 B
b10101010101010101010101010101010 E
b10101010101010101010101010101010 H
b01010101010101010101010101010101 I
bU1 R
bU1 T
bU1 V
bU0 W
b0101010101010101010101010101010U X
bU1010101010101010101010101010101 ^
b01010101010101010101010100110101 f
b10101010101010101010101010101010 g
b0101010101010101010101010101010U h
b10101010101010101010101010101010 i
bU1010101010101010101010101010101 j
bU1 k
bU1 w
bU1 &"
bU0 ,"
b01010101010101010101010101010101 ."
b01010101010101010101010100110101 0"
b10101010101010101010101010101010 1"
b01010101010101010101010101010101 2"
b10101010101010101010101010101010 4"
b01010101010101010101010101010101 5"
#120000000
b11111111111111111111111111111111 !
b11111111111111111111111111111111 "
b11111111111111111111111111111111 &
b11111111111111111111111111111111 '
b11111111111111111111111111111111 +
b00000000000000000000000000000000 -
b00000000000000000000000000000000 0
b00000000000000000000000000000001 2
b11111111111111111111111111111111 6
b11111111111111111111111111111111 7
b11111111111111111111111111111111 8
b11111111111111111111111111111111 9
b11111111111111111111111111111111 :
b11111111111111111111111111111111 <
b11111111111111111111111111111111 =
b00000000000000000000000000000000 >
b11111111111111111111111111111111 ?
b00000000000000000000000000000001 @
b11111111111111111111111111111111 A
b00000000000000000000000000000001 B
b11111111111111111111111111111111 E
b11111111111111111111111111111111 H
b11111111111111111111111111111111 I
bU1 S
bU1 U
bU1 W
b1111111111111111111111111111111U X
bU1111111111111111111111111111111 ^
b11111111111111111111111111011111 f
b11111111111111111111111111111111 g
b1111111111111111111111111111111U h
b11111111111111111111111111111111 i
bU1111111111111111111111111111111 j
bU1 q
bU1 }
bU1 ,"
b11111111111111111111111111111111 ."
b11111111111111111111111111011111 0"
b11111111111111111111111111111111 1"
b11111111111111111111111111111111 2"
b00000000000000000000000000000000 3"
b11111111111111111111111111111111 4"
b11111111111111111111111111111111 5"
#130000000
b11111111111111111111111111111111 )
#160000000
b00000000000000000000000000000000 !
b00000000000000000000000000000000 "
b0111 $
b00000000000000000000000000000000 &
b00000000000000000000000000000000 '
b0111 (
b00000000000000000000000000000000 +
b00000000000000000000000000000000 ,
b00000000000000000000000000000000 /
b00000000000000000000000000000000 2
b11 4
b00000000000000000000000000000000 6
b00000000000000000000000000000000 7
b00000000000000000000000000000000 8
b00000000000000000000000000000000 9
b00000000000000000000000000000000 :
b00000000000000000000000000000000 ;
b00000000000000000000000000000000 <
b00000000000000000000000000000000 =
b00000000000000000000000000000000 ?
b00000000000000000000000000000000 @
b00000000000000000000000000000000 A
b00000000000000000000000000000000 B
b00000000000000000000000000000000 E
b00000000000000000000000000000000 H
b00000000000000000000000000000000 I
b11 J
b00000000000000000000000000000000 K
b00000000000000000000000000000000 L
b00000000000000000000000000000000 M
b00000000000000000000000000000000 N
b00000000000000000000000000000000 O
b00000000000000000000000000000000 P
b10 R
b10 S
b10 T
b10 U
b10 V
b11 W
b00000000000000000000000000000001 X
b00000000000000000000000000000011 Y
b00000000000000000000000000001111 Z
b00000000000000000000000011111111 [
b00000000000000001111111111111111 \
b11111111111111111111111111111111 ]
b10000000000000000000000000000000 ^
b11000000000000000000000000000000 _
b11110000000000000000000000000000 `
b11111111000000000000000000000000 a
b11111111111111110000000000000000 b
b11111111111111111111111111111111 c
b11111111111111111111111111111111 d
b11111111111111111111111111100000 f
b00000000000000000000000000000000 g
b00000000000000000000000000000001 h
b00000000000000000000000000000000 i
b10000000000000000000000000000000 j
b10 k
b00000000000000000000000000000000 l
b00000000000000000000000000000000 m
b00000000000000000000000000000011 n
b00000000000000000000000000000000 o
b11000000000000000000000000000000 p
b10 q
b00000000000000000000000000000000 r
b00000000000000000000000000000000 s
b00000000000000000000000000001111 t
b00000000000000000000000000000000 u
b11110000000000000000000000000000 v
b10 w
b00000000000000000000000000000000 x
b00000000000000000000000000000000 y
b00000000000000000000000011111111 z
b00000000000000000000000000000000 {
b11111111000000000000000000000000 |
b10 }
b00000000000000000000000000000000 !"
b00000000000000000000000000000000 ""
b00000000000000001111111111111111 #"
b00000000000000000000000000000000 $"
b11111111111111110000000000000000 %"
b10 &"
b00000000000000000000000000000000 '"
b11111111111111111111111111111111 ("
b00000000000000000000000000000000 )"
b11111111111111111111111111111111 *"
b00000000000000000000000000000000 +"
b11 ,"
b00000000000000000000000000000000 -"
b00000000000000000000000000000000 ."
b11111111111111111111111111100000 0"
b00000000000000000000000000000000 1"
b00000000000000000000000000000000 2"
b00000000000000000000000000000000 4"
b00000000000000000000000000000000 5"
#180000000
b00000000000000000000000000000000 #
b00000000000000000000000000000000 )
#200000000
b11111111111111111111111111111111 !
b11111111111111111111111111111111 &
b11111111111111111111111111111111 ,
b11111111111111111111111111111111 -
b11111111111111111111111111111111 /
b00000000000000000000000000000001 0
b11111111111111111111111111111111 6
b11111111111111111111111111111111 9
b11111111111111111111111111111111 ;
b11111111111111111111111111111111 <
b11111111111111111111111111111111 >
b11111111111111111111111111111111 E
b11111111111111111111111111111111 H
b11111111111111111111111111111111 K
b11111111111111111111111111111111 L
b11111111111111111111111111111111 M
b11111111111111111111111111111111 N
b11111111111111111111111111111111 O
b11111111111111111111111111111111 P
b11111111111111111111111111111111 X
b11111111111111111111111111111111 Y
b11111111111111111111111111111111 Z
b11111111111111111111111111111111 [
b11111111111111111111111111111111 \
b11111111111111111111111111111111 ^
b11111111111111111111111111111111 _
b11111111111111111111111111111111 `
b11111111111111111111111111111111 a
b11111111111111111111111111111111 b
b11111111111111111111111111111111 g
b11111111111111111111111111111111 h
b11111111111111111111111111111111 i
b11111111111111111111111111111111 j
b11111111111111111111111111111111 l
b11111111111111111111111111111111 m
b11111111111111111111111111111111 n
b11111111111111111111111111111111 o
b11111111111111111111111111111111 p
b11111111111111111111111111111111 r
b11111111111111111111111111111111 s
b11111111111111111111111111111111 t
b11111111111111111111111111111111 u
b11111111111111111111111111111111 v
b11111111111111111111111111111111 x
b11111111111111111111111111111111 y
b11111111111111111111111111111111 z
b11111111111111111111111111111111 {
b11111111111111111111111111111111 |
b11111111111111111111111111111111 !"
b11111111111111111111111111111111 ""
b11111111111111111111111111111111 #"
b11111111111111111111111111111111 $"
b11111111111111111111111111111111 %"
b11111111111111111111111111111111 '"
b11111111111111111111111111111111 )"
b11111111111111111111111111111111 +"
b11111111111111111111111111111111 -"
b11111111111111111111111111111111 1"
b00000000000000000000000000000001 3"
b11111111111111111111111111111111 4"
#220000000
b11111111111111111111111111111111 #
b11111111111111111111111111111111 )
#240000000
b10101010101010101010101010101010 !
b01010101010101010101010101010101 "
b10101010101010101010101010101010 &
b01010101010101010101010101010101 '
b10101010101010101010101010101011 2
b10101010101010101010101010101010 6
b01010101010101010101010101010101 7
b10101010101010101010101010101010 9
b01010101010101010101010101010101 :
b10101010101010101010101010101010 <
b01010101010101010101010101010101 =
b01010101010101010101010101010101 ?
b10101010101010101010101010101011 @
b01010101010101010101010101010101 A
b10101010101010101010101010101011 B
b10101010101010101010101010101010 E
b10101010101010101010101010101010 H
b01010101010101010101010101010101 I
b11010101010101010101010101010101 L
b11010101010101010101010101010101 M
b11111101010101010101010101010101 N
b11111101010101010101010101010101 O
b11111111111111111111110101010101 P
b11 R
b11 T
b11 V
b10 W
b01010101010101010101010101010101 X
b01010101010101010101010101010111 Y
b01010101010101010101010101011111 Z
b01010101010101010101010111111111 [
b01010101010101011111111111111111 \
b11010101010101010101010101010101 ^
b11110101010101010101010101010101 _
b11111101010101010101010101010101 `
b11111111111111010101010101010101 a
b11111111111111111111110101010101 b
b01010101010101010101010100110101 f
b10101010101010101010101010101010 g
b01010101010101010101010101010101 h
b10101010101010101010101010101010 i
b11010101010101010101010101010101 j
b11 k
b11010101010101010101010101010101 l
b11010101010101010101010101010101 m
b01010101010101010101010101010111 n
b11010101010101010101010101010101 o
b11110101010101010101010101010101 p
b11010101010101010101010101010101 r
b11010101010101010101010101010101 s
b01010101010101010101010101011111 t
b11010101010101010101010101010101 u
b11111101010101010101010101010101 v
b11 w
b11111101010101010101010101010101 x
b11111101010101010101010101010101 y
b01010101010101010101010111111111 z
b11111101010101010101010101010101 {
b11111111111111010101010101010101 |
b11111101010101010101010101010101 !"
b11111101010101010101010101010101 ""
b01010101010101011111111111111111 #"
b11111101010101010101010101010101 $"
b11111111111111111111110101010101 %"
b11 &"
b11111111111111111111110101010101 '"
b11111111111111111111110101010101 )"
b11111111111111111111110101010101 +"
b10 ,"
b01010101010101010101010101010101 ."
b01010101010101010101010100110101 0"
b10101010101010101010101010101010 1"
b01010101010101010101010101010101 2"
b10101010101010101010101010101010 4"
b01010101010101010101010101010101 5"
#280000000
b11111111111111111111111111111111 !
b11111111111111111111111111111111 "
b11111111111111111111111111111111 &
b11111111111111111111111111111111 '
b11111111111111111111111111111111 +
b00000000000000000000000000000000 -
b11111111111111111111111111111111 /
b00000000000000000000000000000000 0
b00000000000000000000000000000001 2
b11111111111111111111111111111111 6
b11111111111111111111111111111111 7
b11111111111111111111111111111111 8
b11111111111111111111111111111111 9
b11111111111111111111111111111111 :
b11111111111111111111111111111111 <
b11111111111111111111111111111111 =
b00000000000000000000000000000000 >
b11111111111111111111111111111111 ?
b00000000000000000000000000000001 @
b11111111111111111111111111111111 A
b00000000000000000000000000000001 B
b11111111111111111111111111111111 E
b11111111111111111111111111111111 H
b11111111111111111111111111111111 I
b11111111111111111111111111111111 K
b11111111111111111111111111111111 L
b11111111111111111111111111111111 M
b11111111111111111111111111111111 N
b11111111111111111111111111111111 O
b11111111111111111111111111111111 P
b11 S
b11 U
b11 W
b11111111111111111111111111111111 X
b11111111111111111111111111111111 Y
b11111111111111111111111111111111 Z
b11111111111111111111111111111111 [
b11111111111111111111111111111111 \
b11111111111111111111111111111111 ^
b11111111111111111111111111111111 _
b11111111111111111111111111111111 `
b11111111111111111111111111111111 a
b11111111111111111111111111111111 b
b11111111111111111111111111011111 f
b11111111111111111111111111111111 g
b11111111111111111111111111111111 h
b11111111111111111111111111111111 i
b11111111111111111111111111111111 j
b11111111111111111111111111111111 l
b11111111111111111111111111111111 m
b11111111111111111111111111111111 n
b11111111111111111111111111111111 o
b11111111111111111111111111111111 p
b11 q
b11111111111111111111111111111111 r
b11111111111111111111111111111111 s
b11111111111111111111111111111111 t
b11111111111111111111111111111111 u
b11111111111111111111111111111111 v
b11111111111111111111111111111111 x
b11111111111111111111111111111111 y
b11111111111111111111111111111111 z
b11111111111111111111111111111111 {
b11111111111111111111111111111111 |
b11 }
b11111111111111111111111111111111 !"
b11111111111111111111111111111111 ""
b11111111111111111111111111111111 #"
b11111111111111111111111111111111 $"
b11111111111111111111111111111111 %"
b11111111111111111111111111111111 '"
b11111111111111111111111111111111 )"
b11111111111111111111111111111111 +"
b11 ,"
b11111111111111111111111111111111 -"
b11111111111111111111111111111111 ."
b11111111111111111111111111011111 0"
b11111111111111111111111111111111 1"
b11111111111111111111111111111111 2"
b00000000000000000000000000000000 3"
b11111111111111111111111111111111 4"
b11111111111111111111111111111111 5"
#300000000
b11111111111111111111111111111111 )
#320000000
b00000000000000000000000000000000 !
b00000000000000000000000000000000 "
b0100 $
b00000000000000000000000000000000 &
b00000000000000000000000000000000 '
b0100 (
b00000000000000000000000000000000 +
b00000000000000000000000000000000 ,
b00000000000000000000000000000000 /
b00000000000000000000000000000000 2
b00000000000000000000000000000000 6
b00000000000000000000000000000000 7
b00000000000000000000000000000000 8
b00000000000000000000000000000000 9
b00000000000000000000000000000000 :
b00000000000000000000000000000000 ;
b00000000000000000000000000000000 <
b00000000000000000000000000000000 =
b00000000000000000000000000000000 ?
b00000000000000000000000000000000 @
b00000000000000000000000000000000 A
b00000000000000000000000000000000 B
b00000000000000000000000000000000 E
b00000000000000000000000000000000 H
b00000000000000000000000000000000 I
b00000000000000000000000000000000 K
b00000000000000000000000000000000 L
b00000000000000000000000000000000 M
b00000000000000000000000000000000 N
b00000000000000000000000000000000 O
b00000000000000000000000000000000 P
b10 R
b10 S
b10 T
b10 U
b10 V
b00000000000000000000000000000001 X
b00000000000000000000000000000011 Y
b00000000000000000000000000001111 Z
b00000000000000000000000011111111 [
b00000000000000001111111111111111 \
b10000000000000000000000000000000 ^
b11000000000000000000000000000000 _
b11110000000000000000000000000000 `
b11111111000000000000000000000000 a
b11111111111111110000000000000000 b
b11111111111111111111111111100000 f
b00000000000000000000000000000000 g
b00000000000000000000000000000001 h
b00000000000000000000000000000000 i
b10000000000000000000000000000000 j
b10 k
b00000000000000000000000000000000 l
b00000000000000000000000000000000 m
b00000000000000000000000000000011 n
b00000000000000000000000000000000 o
b11000000000000000000000000000000 p
b10 q
b00000000000000000000000000000000 r
b00000000000000000000000000000000 s
b00000000000000000000000000001111 t
b00000000000000000000000000000000 u
b11110000000000000000000000000000 v
b10 w
b00000000000000000000000000000000 x
b00000000000000000000000000000000 y
b00000000000000000000000011111111 z
b00000000000000000000000000000000 {
b11111111000000000000000000000000 |
b10 }
b00000000000000000000000000000000 !"
b00000000000000000000000000000000 ""
b00000000000000001111111111111111 #"
b00000000000000000000000000000000 $"
b11111111111111110000000000000000 %"
b10 &"
b00000000000000000000000000000000 '"
b00000000000000000000000000000000 )"
b00000000000000000000000000000000 +"
b00000000000000000000000000000000 -"
b00000000000000000000000000000000 ."
b11111111111111111111111111100000 0"
b00000000000000000000000000000000 1"
b00000000000000000000000000000000 2"
b00000000000000000000000000000000 4"
b00000000000000000000000000000000 5"
#340000000
b00000000000000000000000000000000 #
b00000000000000000000000000000000 )
#360000000
b11111111111111111111111111111111 !
b11111111111111111111111111111111 &
b11111111111111111111111111111111 ,
b11111111111111111111111111111111 -
b11111111111111111111111111111111 /
b00000000000000000000000000000001 0
b11111111111111111111111111111111 6
b11111111111111111111111111111111 9
b11111111111111111111111111111111 ;
b11111111111111111111111111111111 <
b11111111111111111111111111111111 >
b11111111111111111111111111111111 E
b11111111111111111111111111111111 H
b11111111111111111111111111111111 K
b11111111111111111111111111111111 L
b11111111111111111111111111111111 M
b11111111111111111111111111111111 N
b11111111111111111111111111111111 O
b11111111111111111111111111111111 P
b11111111111111111111111111111111 X
b11111111111111111111111111111111 Y
b11111111111111111111111111111111 Z
b11111111111111111111111111111111 [
b11111111111111111111111111111111 \
b11111111111111111111111111111111 ^
b11111111111111111111111111111111 _
b11111111111111111111111111111111 `
b11111111111111111111111111111111 a
b11111111111111111111111111111111 b
b11111111111111111111111111111111 g
b11111111111111111111111111111111 h
b11111111111111111111111111111111 i
b11111111111111111111111111111111 j
b11111111111111111111111111111111 l
b11111111111111111111111111111111 m
b11111111111111111111111111111111 n
b11111111111111111111111111111111 o
b11111111111111111111111111111111 p
b11111111111111111111111111111111 r
b11111111111111111111111111111111 s
b11111111111111111111111111111111 t
b11111111111111111111111111111111 u
b11111111111111111111111111111111 v
b11111111111111111111111111111111 x
b11111111111111111111111111111111 y
b11111111111111111111111111111111 z
b11111111111111111111111111111111 {
b11111111111111111111111111111111 |
b11111111111111111111111111111111 !"
b11111111111111111111111111111111 ""
b11111111111111111111111111111111 #"
b11111111111111111111111111111111 $"
b11111111111111111111111111111111 %"
b11111111111111111111111111111111 '"
b11111111111111111111111111111111 )"
b11111111111111111111111111111111 +"
b11111111111111111111111111111111 -"
b11111111111111111111111111111111 1"
b00000000000000000000000000000001 3"
b11111111111111111111111111111111 4"
#380000000
b00000000000000000000000000000000 )
#400000000
b10101010101010101010101010101010 !
b01010101010101010101010101010101 "
b10101010101010101010101010101010 &
b01010101010101010101010101010101 '
b10101010101010101010101010101011 2
b10101010101010101010101010101010 6
b01010101010101010101010101010101 7
b10101010101010101010101010101010 9
b01010101010101010101010101010101 :
b10101010101010101010101010101010 <
b01010101010101010101010101010101 =
b01010101010101010101010101010101 ?
b10101010101010101010101010101011 @
b01010101010101010101010101010101 A
b10101010101010101010101010101011 B
b10101010101010101010101010101010 E
b10101010101010101010101010101010 H
b01010101010101010101010101010101 I
b11010101010101010101010101010101 L
b11010101010101010101010101010101 M
b11111101010101010101010101010101 N
b11111101010101010101010101010101 O
b11111111111111111111110101010101 P
b11 R
b11 T
b11 V
b10 W
b01010101010101010101010101010101 X
b01010101010101010101010101010111 Y
b01010101010101010101010101011111 Z
b01010101010101010101010111111111 [
b01010101010101011111111111111111 \
b11010101010101010101010101010101 ^
b11110101010101010101010101010101 _
b11111101010101010101010101010101 `
b11111111111111010101010101010101 a
b11111111111111111111110101010101 b
b01010101010101010101010100110101 f
b10101010101010101010101010101010 g
b01010101010101010101010101010101 h
b10101010101010101010101010101010 i
b11010101010101010101010101010101 j
b11 k
b11010101010101010101010101010101 l
b11010101010101010101010101010101 m
b01010101010101010101010101010111 n
b11010101010101010101010101010101 o
b11110101010101010101010101010101 p
b11010101010101010101010101010101 r
b11010101010101010101010101010101 s
b01010101010101010101010101011111 t
b11010101010101010101010101010101 u
b11111101010101010101010101010101 v
b11 w
b11111101010101010101010101010101 x
b11111101010101010101010101010101 y
b01010101010101010101010111111111 z
b11111101010101010101010101010101 {
b11111111111111010101010101010101 |
b11111101010101010101010101010101 !"
b11111101010101010101010101010101 ""
b01010101010101011111111111111111 #"
b11111101010101010101010101010101 $"
b11111111111111111111110101010101 %"
b11 &"
b11111111111111111111110101010101 '"
b11111111111111111111110101010101 )"
b11111111111111111111110101010101 +"
b10 ,"
b01010101010101010101010101010101 ."
b01010101010101010101010100110101 0"
b10101010101010101010101010101010 1"
b01010101010101010101010101010101 2"
b10101010101010101010101010101010 4"
b01010101010101010101010101010101 5"
