Phase_01/04. Hardware Implementation/cpu_wavedata.vcd
$date
  Sun Jan 05 01:43:45 2025
$end
$version
  GHDL v0
$end
$timescale
  1 fs
$end
$scope module standard $end
$upscope $end
$scope module std_logic_1164 $end
$upscope $end
$scope module numeric_std $end
$upscope $end
$scope module cputb $end
$var reg 1 ! clk $end
$var reg 1 " reset $end
$var reg 32 # pc[31:0] $end
$var reg 32 $ instruction[31:0] $end
$scope module cpu_test $end
$var reg 32 % instruction[31:0] $end
$var reg 1 & clk $end
$var reg 1 ' reset $end
$var reg 32 ( pc[31:0] $end
$var reg 32 ) pc_if[31:0] $end
$var reg 32 * pc4_if[31:0] $end
$var reg 32 + instruction_if[31:0] $end
$var reg 32 , pc_id[31:0] $end
$var reg 32 - pc4_id[31:0] $end
$var reg 32 . instruction_id[31:0] $end
$var reg 32 / readdata_1_id[31:0] $end
$var reg 32 0 readdata_2_id[31:0] $end
$var reg 32 1 imm_id[31:0] $end
$var reg 4 2 aluop_id[3:0] $end
$var reg 1 3 writeenable_id $end
$var reg 1 4 memread_id $end
$var reg 1 5 memwrite_id $end
$var reg 1 6 jump_id $end
$var reg 1 7 branch_id $end
$var reg 1 8 mux1_i_type_id $end
$var reg 1 9 mux2_i_type_id $end
$var reg 1 : mux3_ri_type_id $end
$var reg 1 ; mux4_i_type_id $end
$var reg 1 < mux5_u_type_id $end
$var reg 32 = pc_ex[31:0] $end
$var reg 32 > pc4_ex[31:0] $end
$var reg 32 ? imm_ex[31:0] $end
$var reg 32 @ readdata_1_ex[31:0] $end
$var reg 32 A readdata_2_ex[31:0] $end
$var reg 32 B aluresult_ex[31:0] $end
$var reg 5 C rd_ex[4:0] $end
$var reg 4 D aluop_ex[3:0] $end
$var reg 3 E func3_ex[2:0] $end
$var reg 1 F writeenable_ex $end
$var reg 1 G zero_ex $end
$var reg 32 H aluresult_mem[31:0] $end
$var reg 5 I rd_mem[4:0] $end
$var reg 3 J func3_mem[2:0] $end
$var reg 1 K writeenable_mem $end
$var reg 32 L aluresult_wb[31:0] $end
$var reg 5 M rd_wb[4:0] $end
$var reg 1 N writeenable_wb $end
$var reg 3 O func3[2:0] $end
$var reg 5 P rs1[4:0] $end
$var reg 5 Q rs2[4:0] $end
$var reg 5 R rd[4:0] $end
$var reg 7 S opcode[6:0] $end
$var reg 7 T func7[6:0] $end
$scope module rv_pc $end
$var reg 1 U clk $end
$var reg 1 V reset $end
$var reg 32 W pc[31:0] $end
$var reg 32 X pc4[31:0] $end
$upscope $end
$scope module rv_if_id $end
$var reg 32 Y instruction_i[31:0] $end
$var reg 32 Z pc_i[31:0] $end
$var reg 32 [ pc4_i[31:0] $end
$var reg 1 \ reset $end
$var reg 1 ] clk $end
$var reg 32 ^ instruction_o[31:0] $end
$var reg 32 _ pc_o[31:0] $end
$var reg 32 ` pc4_o[31:0] $end
$upscope $end
$scope module rv_controler $end
$var reg 7 a func7[6:0] $end
$var reg 7 b opcode[6:0] $end
$var reg 3 c func3[2:0] $end
$var reg 1 d writeenable $end
$var reg 1 e memread $end
$var reg 1 f memwrite $end
$var reg 1 g jump $end
$var reg 1 h branch $end
$var reg 1 i mux1_i_type $end
$var reg 1 j mux2_i_type $end
$var reg 1 k mux3_ri_type $end
$var reg 1 l mux4_i_type $end
$var reg 1 m mux5_u_type $end
$var reg 4 n aluop[3:0] $end
$upscope $end
$scope module rv_regfile $end
$var reg 5 o readregister_1[4:0] $end
$var reg 5 p readregister_2[4:0] $end
$var reg 5 q writeregister[4:0] $end
$var reg 32 r writedata[31:0] $end
$var reg 32 s readdata_1[31:0] $end
$var reg 32 t readdata_2[31:0] $end
$var reg 1 u clock $end
$var reg 1 v reset $end
$var reg 1 w writeenable $end
$comment registers is not handled $end
$upscope $end
$scope module rv_id_ex $end
$var reg 1 x reset $end
$var reg 1 y clk $end
$var reg 1 z writeenable_i $end
$var reg 3 { func3_i[2:0] $end
$var reg 4 | aluop_i[3:0] $end
$var reg 5 } rd_i[4:0] $end
$var reg 32 !" imm_i[31:0] $end
$var reg 32 "" pc_i[31:0] $end
$var reg 32 #" pc4_i[31:0] $end
$var reg 32 $" data1_i[31:0] $end
$var reg 32 %" data2_i[31:0] $end
$var reg 1 &" writeenable_o $end
$var reg 3 '" func3_o[2:0] $end
$var reg 4 (" aluop_o[3:0] $end
$var reg 5 )" rd_o[4:0] $end
$var reg 32 *" imm_o[31:0] $end
$var reg 32 +" pc_o[31:0] $end
$var reg 32 ," pc4_o[31:0] $end
$var reg 32 -" data1_o[31:0] $end
$var reg 32 ." data2_o[31:0] $end
$upscope $end
$scope module rv_alu $end
$var reg 32 /" data1[31:0] $end
$var reg 32 0" data2[31:0] $end
$var reg 4 1" aluop[3:0] $end
$var reg 32 2" aluresult[31:0] $end
$var reg 1 3" zero $end
$var reg 32 4" andoutput[31:0] $end
$var reg 32 5" oroutput[31:0] $end
$var reg 32 6" xoroutput[31:0] $end
$var reg 32 7" adderoutput[31:0] $end
$var reg 32 8" shiftoutput[31:0] $end
$var reg 32 9" sltoutput[31:0] $end
$var reg 32 :" sltuoutput[31:0] $end
$var reg 32 ;" compoutput[31:0] $end
$var reg 32 <" muxoutput[31:0] $end
$var reg 2 =" shifttype[1:0] $end
$var reg 1 >" muxselect $end
$scope module and_operator $end
$var reg 32 ?" input_1[31:0] $end
$var reg 32 @" input_2[31:0] $end
$var reg 32 A" output_1[31:0] $end
$upscope $end
$scope module or_operator $end
$var reg 32 B" input_1[31:0] $end
$var reg 32 C" input_2[31:0] $end
$var reg 32 D" output_1[31:0] $end
$upscope $end
$scope module xor_operator $end
$var reg 32 E" input_1[31:0] $end
$var reg 32 F" input_2[31:0] $end
$var reg 32 G" output_1[31:0] $end
$upscope $end
$scope module complementor $end
$var reg 32 H" input_data[31:0] $end
$var reg 32 I" output_data[31:0] $end
$upscope $end
$scope module mux $end
$var reg 32 J" input_1[31:0] $end
$var reg 32 K" input_2[31:0] $end
$var reg 1 L" selector $end
$var reg 32 M" output_1[31:0] $end
$upscope $end
$scope module add_operator $end
$var reg 32 N" input_1[31:0] $end
$var reg 32 O" input_2[31:0] $end
$var reg 32 P" output_1[31:0] $end
$upscope $end
$scope module shift_operator $end
$var reg 32 Q" input_1[31:0] $end
$var reg 32 R" input_2[31:0] $end
$var reg 2 S" shifttype[1:0] $end
$var reg 32 T" output_1[31:0] $end
$var reg 32 U" mux0out[31:0] $end
$var reg 32 V" mux1out[31:0] $end
$var reg 32 W" mux2out[31:0] $end
$var reg 32 X" mux3out[31:0] $end
$var reg 32 Y" mux4out[31:0] $end
$var reg 32 Z" mux5out[31:0] $end
$var reg 2 [" mux0sel[1:0] $end
$var reg 2 \" mux1sel[1:0] $end
$var reg 2 ]" mux2sel[1:0] $end
$var reg 2 ^" mux3sel[1:0] $end
$var reg 2 _" mux4sel[1:0] $end
$var reg 2 `" mux5sel[1:0] $end
$var reg 32 a" shift_l1[31:0] $end
$var reg 32 b" shift_l2[31:0] $end
$var reg 32 c" shift_l4[31:0] $end
$var reg 32 d" shift_l8[31:0] $end
$var reg 32 e" shift_l16[31:0] $end
$var reg 32 f" shift_l32[31:0] $end
$var reg 32 g" shift_r1[31:0] $end
$var reg 32 h" shift_r2[31:0] $end
$var reg 32 i" shift_r4[31:0] $end
$var reg 32 j" shift_r8[31:0] $end
$var reg 32 k" shift_r16[31:0] $end
$var reg 32 l" shift_r32[31:0] $end
$var reg 32 m" extender[31:0] $end
$var reg 32 n" fixed[31:0] $end
$var reg 32 o" adderout[31:0] $end
$scope module mux0 $end
$var reg 32 p" input_1[31:0] $end
$var reg 32 q" input_2[31:0] $end
$var reg 32 r" input_3[31:0] $end
$var reg 32 s" input_4[31:0] $end
$var reg 2 t" selector[1:0] $end
$var reg 32 u" output_1[31:0] $end
$upscope $end
$scope module mux1 $end
$var reg 32 v" input_1[31:0] $end
$var reg 32 w" input_2[31:0] $end
$var reg 32 x" input_3[31:0] $end
$var reg 32 y" input_4[31:0] $end
$var reg 2 z" selector[1:0] $end
$var reg 32 {" output_1[31:0] $end
$upscope $end
$scope module mux2 $end
$var reg 32 |" input_1[31:0] $end
$var reg 32 }" input_2[31:0] $end
$var reg 32 !# input_3[31:0] $end
$var reg 32 "# input_4[31:0] $end
$var reg 2 ## selector[1:0] $end
$var reg 32 $# output_1[31:0] $end
$upscope $end
$scope module mux3 $end
$var reg 32 %# input_1[31:0] $end
$var reg 32 &# input_2[31:0] $end
$var reg 32 '# input_3[31:0] $end
$var reg 32 (# input_4[31:0] $end
$var reg 2 )# selector[1:0] $end
$var reg 32 *# output_1[31:0] $end
$upscope $end
$scope module mux4 $end
$var reg 32 +# input_1[31:0] $end
$var reg 32 ,# input_2[31:0] $end
$var reg 32 -# input_3[31:0] $end
$var reg 32 .# input_4[31:0] $end
$var reg 2 /# selector[1:0] $end
$var reg 32 0# output_1[31:0] $end
$upscope $end
$scope module mux5 $end
$var reg 32 1# input_1[31:0] $end
$var reg 32 2# input_2[31:0] $end
$var reg 32 3# input_3[31:0] $end
$var reg 32 4# input_4[31:0] $end
$var reg 2 5# selector[1:0] $end
$var reg 32 6# output_1[31:0] $end
$upscope $end
$scope module shiftadder $end
$var reg 32 7# input_1[31:0] $end
$var reg 32 8# input_2[31:0] $end
$var reg 32 9# output_1[31:0] $end
$upscope $end
$upscope $end
$scope module slt_operator $end
$var reg 32 :# input_1[31:0] $end
$var reg 32 ;# input_2[31:0] $end
$var reg 32 <# output_1[31:0] $end
$upscope $end
$scope module sltu_operator $end
$var reg 32 =# input_1[31:0] $end
$var reg 32 ># input_2[31:0] $end
$var reg 32 ?# output_1[31:0] $end
$upscope $end
$upscope $end
$scope module rv_ex_mem $end
$var reg 1 @# reset $end
$var reg 1 A# clk $end
$var reg 1 B# writeenable_i $end
$var reg 5 C# rd_i[4:0] $end
$var reg 3 D# func3_i[2:0] $end
$var reg 32 E# aluresult_i[31:0] $end
$var reg 1 F# writeenable_o $end
$var reg 5 G# rd_o[4:0] $end
$var reg 3 H# func3_o[2:0] $end
$var reg 32 I# aluresult_o[31:0] $end
$upscope $end
$scope module rv_mem_wb $end
$var reg 1 J# reset $end
$var reg 1 K# clk $end
$var reg 1 L# writeenable_i $end
$var reg 5 M# rd_i[4:0] $end
$var reg 32 N# aluresult_i[31:0] $end
$var reg 1 O# writeenable_o $end
$var reg 5 P# rd_o[4:0] $end
$var reg 32 Q# aluresult_o[31:0] $end
$upscope $end
$upscope $end
$upscope $end
$enddefinitions $end
#0
0!
1"
bUUUUUUUUUUUUUUUUUUUUUUUUUUUUUUUU #
bUUUUUUUUUUUUUUUUUUUUUUUUUUUUUUUU $
bUUUUUUUUUUUUUUUUUUUUUUUUUUUUUUUU %
0&
1'
bUUUUUUUUUUUUUUUUUUUUUUUUUUUUUUUU (
bUUUUUUUUUUUUUUUUUUUUUUUUUUUUUUUU )
bUUUUUUUUUUUUUUUUUUUUUUUUUUUUUUUU *
bUUUUUUUUUUUUUUUUUUUUUUUUUUUUUUUU +
bUUUUUUUUUUUUUUUUUUUUUUUUUUUUUUUU ,
bUUUUUUUUUUUUUUUUUUUUUUUUUUUUUUUU -
bUUUUUUUUUUUUUUUUUUUUUUUUUUUUUUUU .
b00000000000000000000000000000000 /
b00000000000000000000000000000000 0
bUUUUUUUUUUUUUUUUUUUUUUUUUUUUUUUU 1
bUUUU 2
U3
U4
U5
U6
U7
U8
U9
U:
U;
U<
bUUUUUUUUUUUUUUUUUUUUUUUUUUUUUUUU =
bUUUUUUUUUUUUUUUUUUUUUUUUUUUUUUUU >
bUUUUUUUUUUUUUUUUUUUUUUUUUUUUUUUU ?
bUUUUUUUUUUUUUUUUUUUUUUUUUUUUUUUU @
bUUUUUUUUUUUUUUUUUUUUUUUUUUUUUUUU A
bXXXXXXXXXXXXXXXXXXXXXXXXXXXXXXXX B
bUUUUU C
bUUUU D
bUUU E
UF
UG
bUUUUUUUUUUUUUUUUUUUUUUUUUUUUUUUU H
bUUUUU I
bUUU J
UK
bUUUUUUUUUUUUUUUUUUUUUUUUUUUUUUUU L
bUUUUU M
UN
bUUU O
bUUUUU P
bUUUUU Q
bUUUUU R
bUUUUUUU S
bUUUUUUU T
0U
1V
bUUUUUUUUUUUUUUUUUUUUUUUUUUUUUUUU W
bUUUUUUUUUUUUUUUUUUUUUUUUUUUUUUUU X
bUUUUUUUUUUUUUUUUUUUUUUUUUUUUUUUU Y
bUUUUUUUUUUUUUUUUUUUUUUUUUUUUUUUU Z
bUUUUUUUUUUUUUUUUUUUUUUUUUUUUUUUU [
1\
0]
bUUUUUUUUUUUUUUUUUUUUUUUUUUUUUUUU ^
bUUUUUUUUUUUUUUUUUUUUUUUUUUUUUUUU _
bUUUUUUUUUUUUUUUUUUUUUUUUUUUUUUUU `
bUUUUUUU a
bUUUUUUU b
bUUU c
Ud
Ue
Uf
Ug
Uh
Ui
Uj
Uk
Ul
Um
bUUUU n
bUUUUU o
bUUUUU p
bUUUUU q
bUUUUUUUUUUUUUUUUUUUUUUUUUUUUUUUU r
b00000000000000000000000000000000 s
b00000000000000000000000000000000 t
0u
1v
Uw
1x
0y
Uz
bUUU {
bUUUU |
bUUUUU }
bUUUUUUUUUUUUUUUUUUUUUUUUUUUUUUUU !"
bUUUUUUUUUUUUUUUUUUUUUUUUUUUUUUUU ""
bUUUUUUUUUUUUUUUUUUUUUUUUUUUUUUUU #"
b00000000000000000000000000000000 $"
b00000000000000000000000000000000 %"
U&"
bUUU '"
bUUUU ("
bUUUUU )"
bUUUUUUUUUUUUUUUUUUUUUUUUUUUUUUUU *"
bUUUUUUUUUUUUUUUUUUUUUUUUUUUUUUUU +"
bUUUUUUUUUUUUUUUUUUUUUUUUUUUUUUUU ,"
bUUUUUUUUUUUUUUUUUUUUUUUUUUUUUUUU -"
bUUUUUUUUUUUUUUUUUUUUUUUUUUUUUUUU ."
bUUUUUUUUUUUUUUUUUUUUUUUUUUUUUUUU /"
bUUUUUUUUUUUUUUUUUUUUUUUUUUUUUUUU 0"
bUUUU 1"
bXXXXXXXXXXXXXXXXXXXXXXXXXXXXXXXX 2"
U3"
bUUUUUUUUUUUUUUUUUUUUUUUUUUUUUUUU 4"
bUUUUUUUUUUUUUUUUUUUUUUUUUUUUUUUU 5"
bUUUUUUUUUUUUUUUUUUUUUUUUUUUUUUUU 6"
bXXXXXXXXXXXXXXXXXXXXXXXXXXXXXXXX 7"
bZZZZZZZZZZZZZZZZZZZZZZZZZZZZZZZZ 8"
b00000000000000000000000000000000 9"
b00000000000000000000000000000000 :"
bXXXXXXXXXXXXXXXXXXXXXXXXXXXXXXXX ;"
bZZZZZZZZZZZZZZZZZZZZZZZZZZZZZZZZ <"
bUU ="
U>"
bUUUUUUUUUUUUUUUUUUUUUUUUUUUUUUUU ?"
bUUUUUUUUUUUUUUUUUUUUUUUUUUUUUUUU @"
bUUUUUUUUUUUUUUUUUUUUUUUUUUUUUUUU A"
bUUUUUUUUUUUUUUUUUUUUUUUUUUUUUUUU B"
bUUUUUUUUUUUUUUUUUUUUUUUUUUUUUUUU C"
bUUUUUUUUUUUUUUUUUUUUUUUUUUUUUUUU D"
bUUUUUUUUUUUUUUUUUUUUUUUUUUUUUUUU E"
bUUUUUUUUUUUUUUUUUUUUUUUUUUUUUUUU F"
bUUUUUUUUUUUUUUUUUUUUUUUUUUUUUUUU G"
bUUUUUUUUUUUUUUUUUUUUUUUUUUUUUUUU H"
bXXXXXXXXXXXXXXXXXXXXXXXXXXXXXXXX I"
bUUUUUUUUUUUUUUUUUUUUUUUUUUUUUUUU J"
bXXXXXXXXXXXXXXXXXXXXXXXXXXXXXXXX K"
UL"
bZZZZZZZZZZZZZZZZZZZZZZZZZZZZZZZZ M"
bUUUUUUUUUUUUUUUUUUUUUUUUUUUUUUUU N"
bZZZZZZZZZZZZZZZZZZZZZZZZZZZZZZZZ O"
bXXXXXXXXXXXXXXXXXXXXXXXXXXXXXXXX P"
bUUUUUUUUUUUUUUUUUUUUUUUUUUUUUUUU Q"
bUUUUUUUUUUUUUUUUUUUUUUUUUUUUUUUU R"
bUU S"
bZZZZZZZZZZZZZZZZZZZZZZZZZZZZZZZZ T"
bZZZZZZZZZZZZZZZZZZZZZZZZZZZZZZZZ U"
bZZZZZZZZZZZZZZZZZZZZZZZZZZZZZZZZ V"
bZZZZZZZZZZZZZZZZZZZZZZZZZZZZZZZZ W"
bZZZZZZZZZZZZZZZZZZZZZZZZZZZZZZZZ X"
bZZZZZZZZZZZZZZZZZZZZZZZZZZZZZZZZ Y"
bUUUUUUUUUUUUUUUUUUUUUUUUUUUUUUUU Z"
bUU ["
bUU \"
bUU ]"
bUU ^"
bUU _"
bUX `"
bUUUUUUUUUUUUUUUUUUUUUUUUUUUUUUUU a"
bZZZZZZZZZZZZZZZZZZZZZZZZZZZZZZUU b"
bZZZZZZZZZZZZZZZZZZZZZZZZZZZZUUUU c"
bZZZZZZZZZZZZZZZZZZZZZZZZUUUUUUUU d"
bZZZZZZZZZZZZZZZZUUUUUUUUUUUUUUUU e"
bUUUUUUUUUUUUUUUUUUUUUUUUUUUUUUUU f"
bUUUUUUUUUUUUUUUUUUUUUUUUUUUUUUUU g"
bUUZZZZZZZZZZZZZZZZZZZZZZZZZZZZZZ h"
bUUUUZZZZZZZZZZZZZZZZZZZZZZZZZZZZ i"
bUUUUUUUUZZZZZZZZZZZZZZZZZZZZZZZZ j"
bUUUUUUUUUUUUUUUUZZZZZZZZZZZZZZZZ k"
bUUUUUUUUUUUUUUUUUUUUUUUUUUUUUUUU l"
bUUUUUUUUUUUUUUUUUUUUUUUUUUUUUUUU m"
b11111111111111111111111111100000 n"
bXXXXXXXXXXXXXXXXXXXXXXXXXXXXXXXX o"
bUUUUUUUUUUUUUUUUUUUUUUUUUUUUUUUU p"
bUUUUUUUUUUUUUUUUUUUUUUUUUUUUUUUU q"
bUUUUUUUUUUUUUUUUUUUUUUUUUUUUUUUU r"
bUUUUUUUUUUUUUUUUUUUUUUUUUUUUUUUU s"
bUU t"
bZZZZZZZZZZZZZZZZZZZZZZZZZZZZZZZZ u"
bZZZZZZZZZZZZZZZZZZZZZZZZZZZZZZZZ v"
bZZZZZZZZZZZZZZZZZZZZZZZZZZZZZZUU w"
bZZZZZZZZZZZZZZZZZZZZZZZZZZZZZZZZ x"
bUUZZZZZZZZZZZZZZZZZZZZZZZZZZZZZZ y"
bUU z"
bZZZZZZZZZZZZZZZZZZZZZZZZZZZZZZZZ {"
bZZZZZZZZZZZZZZZZZZZZZZZZZZZZZZZZ |"
bZZZZZZZZZZZZZZZZZZZZZZZZZZZZUUUU }"
bZZZZZZZZZZZZZZZZZZZZZZZZZZZZZZZZ !#
bUUUUZZZZZZZZZZZZZZZZZZZZZZZZZZZZ "#
bUU ##
bZZZZZZZZZZZZZZZZZZZZZZZZZZZZZZZZ $#
bZZZZZZZZZZZZZZZZZZZZZZZZZZZZZZZZ %#
bZZZZZZZZZZZZZZZZZZZZZZZZUUUUUUUU &#
bZZZZZZZZZZZZZZZZZZZZZZZZZZZZZZZZ '#
bUUUUUUUUZZZZZZZZZZZZZZZZZZZZZZZZ (#
bUU )#
bZZZZZZZZZZZZZZZZZZZZZZZZZZZZZZZZ *#
bZZZZZZZZZZZZZZZZZZZZZZZZZZZZZZZZ +#
bZZZZZZZZZZZZZZZZUUUUUUUUUUUUUUUU ,#
bZZZZZZZZZZZZZZZZZZZZZZZZZZZZZZZZ -#
bUUUUUUUUUUUUUUUUZZZZZZZZZZZZZZZZ .#
bUU /#
bZZZZZZZZZZZZZZZZZZZZZZZZZZZZZZZZ 0#
bUUUUUUUUUUUUUUUUUUUUUUUUUUUUUUUU 1#
bZZZZZZZZZZZZZZZZZZZZZZZZZZZZZZZZ 2#
bUUUUUUUUUUUUUUUUUUUUUUUUUUUUUUUU 3#
bZZZZZZZZZZZZZZZZZZZZZZZZZZZZZZZZ 4#
bUX 5#
bZZZZZZZZZZZZZZZZZZZZZZZZZZZZZZZZ 6#
bUUUUUUUUUUUUUUUUUUUUUUUUUUUUUUUU 7#
b11111111111111111111111111100000 8#
bXXXXXXXXXXXXXXXXXXXXXXXXXXXXXXXX 9#
bUUUUUUUUUUUUUUUUUUUUUUUUUUUUUUUU :#
bUUUUUUUUUUUUUUUUUUUUUUUUUUUUUUUU ;#
b00000000000000000000000000000000 <#
bUUUUUUUUUUUUUUUUUUUUUUUUUUUUUUUU =#
bUUUUUUUUUUUUUUUUUUUUUUUUUUUUUUUU >#
b00000000000000000000000000000000 ?#
1@#
0A#
UB#
bUUUUU C#
bUUU D#
bXXXXXXXXXXXXXXXXXXXXXXXXXXXXXXXX E#
UF#
bUUUUU G#
bUUU H#
bUUUUUUUUUUUUUUUUUUUUUUUUUUUUUUUU I#
1J#
0K#
UL#
bUUUUU M#
bUUUUUUUUUUUUUUUUUUUUUUUUUUUUUUUU N#
UO#
bUUUUU P#
bUUUUUUUUUUUUUUUUUUUUUUUUUUUUUUUU Q#
#20000000
bXXXXXXXXXXXXXXXXXXXXXXXXXXXXXXXX $
bXXXXXXXXXXXXXXXXXXXXXXXXXXXXXXXX %
bXXXXXXXXXXXXXXXXXXXXXXXXXXXXXXXX +
bXXXXXXXXXXXXXXXXXXXXXXXXXXXXXXXX Y
#40000000
1!
b00000000000000000000000000000000 #
1&
b00000000000000000000000000000000 (
b00000000000000000000000000000000 )
b00000000000000000000000000000100 *
b00000000000000000000000000000000 ,
b00000000000000000000000000000000 -
b00000000000000000000000000000000 .
b00000000000000000000000000000000 =
b00000000000000000000000000000000 >
b00000000000000000000000000000000 ?
b00000000000000000000000000000000 @
b00000000000000000000000000000000 A
b00000 C
b0000 D
b000 E
0F
b00000000000000000000000000000000 H
b00000 I
b000 J
0K
b00000000000000000000000000000000 L
b00000 M
0N
b000 O
b00000 P
b00000 Q
b00000 R
b0000000 S
b0000000 T
1U
b00000000000000000000000000000000 W
b00000000000000000000000000000100 X
b00000000000000000000000000000000 Z
b00000000000000000000000000000100 [
1]
b00000000000000000000000000000000 ^
b00000000000000000000000000000000 _
b00000000000000000000000000000000 `
b0000000 a
b0000000 b
b000 c
b00000 o
b00000 p
b00000 q
b00000000000000000000000000000000 r
1u
0w
1y
b000 {
b00000 }
b00000000000000000000000000000000 ""
b00000000000000000000000000000000 #"
0&"
b000 '"
b0000 ("
b00000 )"
b00000000000000000000000000000000 *"
b00000000000000000000000000000000 +"
b00000000000000000000000000000000 ,"
b00000000000000000000000000000000 -"
b00000000000000000000000000000000 ."
b00000000000000000000000000000000 /"
b00000000000000000000000000000000 0"
b0000 1"
b00000000000000000000000000000000 4"
b00000000000000000000000000000000 5"
b00000000000000000000000000000000 6"
b00000000000000000000000000000000 7"
b00000000000000000000000000000000 ;"
b00000000000000000000000000000000 <"
0>"
b00000000000000000000000000000000 ?"
b00000000000000000000000000000000 @"
b00000000000000000000000000000000 A"
b00000000000000000000000000000000 B"
b00000000000000000000000000000000 C"
b00000000000000000000000000000000 D"
b00000000000000000000000000000000 E"
b00000000000000000000000000000000 F"
b00000000000000000000000000000000 G"
b00000000000000000000000000000000 H"
b00000000000000000000000000000000 I"
b00000000000000000000000000000000 J"
b00000000000000000000000000000000 K"
0L"
b00000000000000000000000000000000 M"
b00000000000000000000000000000000 N"
b00000000000000000000000000000000 O"
b00000000000000000000000000000000 P"
b00000000000000000000000000000000 Q"
b00000000000000000000000000000000 R"
bU0 ["
bU0 \"
bU0 ]"
bU0 ^"
bU0 _"
bU1 `"
b0000000000000000000000000000000U a"
bU0000000000000000000000000000000 g"
b11111111111111111111111111100000 o"
b00000000000000000000000000000000 p"
b0000000000000000000000000000000U q"
b00000000000000000000000000000000 r"
bU0000000000000000000000000000000 s"
bU0 t"
bU0 z"
bU0 ##
bU0 )#
bU0 /#
bU1 5#
b00000000000000000000000000000000 7#
b11111111111111111111111111100000 9#
b00000000000000000000000000000000 :#
b00000000000000000000000000000000 ;#
b00000000000000000000000000000000 =#
b00000000000000000000000000000000 >#
1A#
0B#
b00000 C#
b000 D#
0F#
b00000 G#
b000 H#
b00000000000000000000000000000000 I#
1K#
0L#
b00000 M#
b00000000000000000000000000000000 N#
0O#
b00000 P#
b00000000000000000000000000000000 Q#
#60000000
b00000000000100010000000000110011 $
b00000000000100010000000000110011 %
b00000000000100010000000000110011 +
b00000000000000000000000000000000 B
b00000000000100010000000000110011 Y
b00000000000000000000000000000000 2"
b00000000000000000000000000000000 E#
#80000000
0!
0"
0&
0'
0U
0V
0\
0]
0u
0v
0x
0y
0@#
0A#
0J#
0K#
#120000000
1!
b00000000000000000000000000000100 #
1&
b00000000000000000000000000000100 (
b00000000000000000000000000000100 )
b00000000000000000000000000001000 *
b00000000000000000000000000000100 -
b00000000000100010000000000110011 .
b0000 2
13
bUUUUUUUUUUUUUUUUUUUUUUUUUUUUUUUU ?
bXXXXXXXXXXXXXXXXXXXXXXXXXXXXXXXX B
bUUUU D
UF
b00010 P
b00001 Q
b0110011 S
1U
b00000000000000000000000000000100 W
b00000000000000000000000000001000 X
b00000000000000000000000000000100 Z
b00000000000000000000000000001000 [
1]
b00000000000100010000000000110011 ^
b00000000000000000000000000000100 `
b0110011 b
1d
b0000 n
b00010 o
b00001 p
1u
1y
1z
b0000 |
b00000000000000000000000000000100 #"
U&"
bUUUU ("
bUUUUUUUUUUUUUUUUUUUUUUUUUUUUUUUU *"
bUUUU 1"
bXXXXXXXXXXXXXXXXXXXXXXXXXXXXXXXX 2"
1A#
UB#
bXXXXXXXXXXXXXXXXXXXXXXXXXXXXXXXX E#
1K#
#140000000
b00000000000000000000001000110011 $
b00000000000000000000001000110011 %
b00000000000000000000001000110011 +
b00000000000000000000001000110011 Y
#160000000
0!
0&
0U
0]
0u
0y
0A#
0K#
#200000000
1!
b00000000000000000000000000001000 #
1&
b00000000000000000000000000001000 (
b00000000000000000000000000001000 )
b00000000000000000000000000001100 *
b00000000000000000000000000000100 ,
b00000000000000000000000000001000 -
b00000000000000000000001000110011 .
b00000000000000000000000000000100 >
b0000 D
1F
bXXXXXXXXXXXXXXXXXXXXXXXXXXXXXXXX H
UK
b00000 P
b00000 Q
b00100 R
1U
b00000000000000000000000000001000 W
b00000000000000000000000000001100 X
b00000000000000000000000000001000 Z
b00000000000000000000000000001100 [
1]
b00000000000000000000001000110011 ^
b00000000000000000000000000000100 _
b00000000000000000000000000001000 `
b00000 o
b00000 p
1u
1y
b00100 }
b00000000000000000000000000000100 ""
b00000000000000000000000000001000 #"
1&"
b0000 ("
b00000000000000000000000000000100 ,"
b0000 1"
1A#
1B#
UF#
bXXXXXXXXXXXXXXXXXXXXXXXXXXXXXXXX I#
1K#
UL#
bXXXXXXXXXXXXXXXXXXXXXXXXXXXXXXXX N#
#220000000
b00000000000000000010000000110011 $
b00000000000000000010000000110011 %
b00000000000000000010000000110011 +
b00000000000000000000000000000000 B
b00000000000000000010000000110011 Y
b00000000000000000000000000000000 2"
b00000000000000000000000000000000 E#
#240000000
0!
0&
0U
0]
0u
0y
0A#
0K#
#280000000
1!
b00000000000000000000000000001100 #
1&
b00000000000000000000000000001100 (
b00000000000000000000000000001100 )
b00000000000000000000000000010000 *
b00000000000000000000000000001000 ,
b00000000000000000000000000001100 -
b00000000000000000010000000110011 .
b0011 2
b00000000000000000000000000000100 =
b00000000000000000000000000001000 >
b00100 C
b00000000000000000000000000000000 H
1K
bXXXXXXXXXXXXXXXXXXXXXXXXXXXXXXXX L
UN
b010 O
b00000 R
1U
b00000000000000000000000000001100 W
b00000000000000000000000000010000 X
b00000000000000000000000000001100 Z
b00000000000000000000000000010000 [
1]
b00000000000000000010000000110011 ^
b00000000000000000000000000001000 _
b00000000000000000000000000001100 `
b010 c
b0011 n
bXXXXXXXXXXXXXXXXXXXXXXXXXXXXXXXX r
1u
Uw
1y
b010 {
b0011 |
b00000 }
b00000000000000000000000000001000 ""
b00000000000000000000000000001100 #"
b00100 )"
b00000000000000000000000000000100 +"
b00000000000000000000000000001000 ,"
1A#
b00100 C#
1F#
b00000000000000000000000000000000 I#
1K#
1L#
b00000000000000000000000000000000 N#
UO#
bXXXXXXXXXXXXXXXXXXXXXXXXXXXXXXXX Q#
#300000000
b00000000000000000000000000000100 $
b00000000000000000000000000000100 %
b00000000000000000000000000000100 +
b00000000000000000000000000000100 Y
#320000000
0!
0&
0U
0]
0u
0y
0A#
0K#
#360000000
1!
b00000000000000000000000000010000 #
1&
b00000000000000000000000000010000 (
b00000000000000000000000000010000 )
b00000000000000000000000000010100 *
b00000000000000000000000000001100 ,
b00000000000000000000000000010000 -
b00000000000000000000000000000100 .
b00000000000000000000000000001000 =
b00000000000000000000000000001100 >
b00000 C
b0011 D
b010 E
b00100 I
b00000000000000000000000000000000 L
1N
b000 O
b0000100 S
1U
b00000000000000000000000000010000 W
b00000000000000000000000000010100 X
b00000000000000000000000000010000 Z
b00000000000000000000000000010100 [
1]
b00000000000000000000000000000100 ^
b00000000000000000000000000001100 _
b00000000000000000000000000010000 `
b0000100 b
b000 c
b00000000000000000000000000000000 r
1u
1w
1y
b000 {
b00000000000000000000000000001100 ""
b00000000000000000000000000010000 #"
b010 '"
b0011 ("
b00000 )"
b00000000000000000000000000001000 +"
b00000000000000000000000000001100 ,"
b0011 1"
1A#
b00000 C#
b010 D#
b00100 G#
1K#
b00100 M#
1O#
b00000000000000000000000000000000 Q#
#380000000
b00000000000000000000000000000101 $
b00000000000000000000000000000101 %
b00000000000000000000000000000101 +
b00000000000000000000000000000101 Y
b00000000000000000000000000000000 2"
#400000000
0!
0&
0U
0]
0u
0y
0A#
0K#
